Assignment 3
…
    },
    {
      "code": "Tid",
      "selection": {
        "filter": "item",
        "values": ["2000", "2023", "2024"]
      }
    }
  ],
  "response": {
    "format": "json-stat2"
  }
} 

# A tibble: 529,713 × 6
  aar   akom  akom_navn bkom  bkom_navn       pendlere
  <chr> <chr> <chr>     <chr> <chr>              <int>
1 2002  k3101 Halden    k1102 Sandnes (-2019)        0
2 2003  k3101 Halden    k1102 Sandnes (-2019)        0
3 2004  k3101 Halden    k1102 Sandnes (-2019)        0
4 2005  k3101 Halden    k1102 Sandnes (-2019)        0
5 2006  k3101 Halden    k1102 Sandnes (-2019)        0
# ℹ 529,708 more rows

# A tibble: 529,713 × 6
  aar   akom  akom_navn       bkom  bkom_navn pendlere
  <chr> <chr> <chr>           <chr> <chr>        <int>
1 2002  k1102 Sandnes (-2019) k3101 Halden           0
2 2003  k1102 Sandnes (-2019) k3101 Halden           0
3 2004  k1102 Sandnes (-2019) k3101 Halden           0
4 2005  k1102 Sandnes (-2019) k3101 Halden           0
5 2006  k1102 Sandnes (-2019) k3101 Halden           0
# ℹ 529,708 more rows

Kommunesammenslåingene

Bosted rundt Boknafjorden

# A tibble: 9,660 × 6
  aar   nye_akom nye_akom_navn nye_bkom nye_bkom_navn pendlere
  <chr> <chr>    <chr>         <chr>    <chr>            <int>
1 2002  k1103    Stavanger     k1103    Stavanger        43142
2 2002  k1103    Stavanger     k1106    Haugesund          347
3 2002  k1103    Stavanger     k1108    Sandnes           8826
4 2002  k1103    Stavanger     k1119    Hå                 637
5 2002  k1103    Stavanger     k1120    Klepp             1187
# ℹ 9,655 more rows
…
